module gitlab.com/Orange-OpenSource/kanod/cluster-def

go 1.16

replace k8s.io/api => k8s.io/api v0.22.2

replace k8s.io/apiextensions-apiserver => k8s.io/apiextensions-apiserver v0.22.2

replace k8s.io/apimachinery => k8s.io/apimachinery v0.22.4-rc.0

replace k8s.io/apiserver => k8s.io/apiserver v0.22.2

replace k8s.io/cli-runtime => k8s.io/cli-runtime v0.22.2

replace k8s.io/client-go => k8s.io/client-go v0.22.2

replace k8s.io/cloud-provider => k8s.io/cloud-provider v0.22.2

replace k8s.io/cluster-bootstrap => k8s.io/cluster-bootstrap v0.22.2

replace k8s.io/code-generator => k8s.io/code-generator v0.22.4-rc.0

replace k8s.io/component-base => k8s.io/component-base v0.22.2

replace k8s.io/component-helpers => k8s.io/component-helpers v0.22.2

replace k8s.io/controller-manager => k8s.io/controller-manager v0.22.2

replace k8s.io/cri-api => k8s.io/cri-api v0.23.0-alpha.0

replace k8s.io/csi-translation-lib => k8s.io/csi-translation-lib v0.22.2

replace k8s.io/kube-aggregator => k8s.io/kube-aggregator v0.22.2

replace k8s.io/kube-controller-manager => k8s.io/kube-controller-manager v0.22.2

replace k8s.io/kube-proxy => k8s.io/kube-proxy v0.22.2

replace k8s.io/kube-scheduler => k8s.io/kube-scheduler v0.22.2

replace k8s.io/kubectl => k8s.io/kubectl v0.22.2

replace k8s.io/kubelet => k8s.io/kubelet v0.22.2

replace k8s.io/legacy-cloud-providers => k8s.io/legacy-cloud-providers v0.22.2

replace k8s.io/metrics => k8s.io/metrics v0.22.2

replace k8s.io/mount-utils => k8s.io/mount-utils v0.22.4-rc.0

replace k8s.io/pod-security-admission => k8s.io/pod-security-admission v0.22.2

replace k8s.io/sample-apiserver => k8s.io/sample-apiserver v0.22.2

replace k8s.io/sample-cli-plugin => k8s.io/sample-cli-plugin v0.22.2

replace k8s.io/sample-controller => k8s.io/sample-controller v0.22.2

require (
	github.com/argoproj/gitops-engine v0.5.2
	github.com/drone/envsubst v1.0.3
	github.com/ghodss/yaml v1.0.0
	github.com/go-logr/logr v1.2.0
	github.com/onsi/ginkgo v1.16.5
	github.com/onsi/gomega v1.17.0
	github.com/pkg/errors v0.9.1
	github.com/robfig/cron v1.2.0
	github.com/sirupsen/logrus v1.8.1
	k8s.io/api v0.23.5
	k8s.io/apimachinery v0.23.5
	k8s.io/client-go v0.23.5
	sigs.k8s.io/cluster-api v1.1.4
	sigs.k8s.io/controller-runtime v0.11.2

)
